pipeline.vcd
$date
	Sun Nov 30 23:21:18 2025
$end
$version
	Icarus Verilog
$end
$timescale
	1ps
$end
$scope module tb_pipeline $end
$scope module uut $end
$var wire 1 ! clk $end
$var wire 5 " memwb_write_reg [4:0] $end
$var wire 1 # pc_src $end
$var wire 1 $ reset $end
$var wire 1 % zero_flag $end
$var wire 5 & write_reg [4:0] $end
$var wire 32 ' shifted [31:0] $end
$var wire 32 ( pc_plus4 [31:0] $end
$var wire 32 ) pc_next [31:0] $end
$var wire 10 * pc_index [9:0] $end
$var wire 32 + pc_curr [31:0] $end
$var wire 5 , memwb_write_reg_wire [4:0] $end
$var wire 32 - memwb_write_data [31:0] $end
$var wire 32 . memwb_read_data [31:0] $end
$var wire 32 / memwb_alu_result [31:0] $end
$var wire 1 0 memwb_RegWrite $end
$var wire 1 1 memwb_MemToReg $end
$var wire 32 2 mem_read_data [31:0] $end
$var wire 32 3 jump_target [31:0] $end
$var wire 32 4 instr [31:0] $end
$var wire 32 5 ifid_pcplus4 [31:0] $end
$var wire 32 6 ifid_instr [31:0] $end
$var wire 32 7 idex_sign_ext [31:0] $end
$var wire 32 8 idex_rt_data [31:0] $end
$var wire 5 9 idex_rt [4:0] $end
$var wire 32 : idex_rs_data [31:0] $end
$var wire 5 ; idex_rs [4:0] $end
$var wire 5 < idex_rd [4:0] $end
$var wire 32 = idex_pcplus4 [31:0] $end
$var wire 6 > idex_opcode [5:0] $end
$var wire 6 ? idex_funct [5:0] $end
$var wire 1 @ idex_RegWrite $end
$var wire 1 A idex_RegDst $end
$var wire 1 B idex_MemWrite $end
$var wire 1 C idex_MemToReg $end
$var wire 1 D idex_MemRead $end
$var wire 1 E idex_Branch $end
$var wire 1 F idex_ALUSrc $end
$var wire 2 G idex_ALUOp [1:0] $end
$var wire 32 H id_sign_ext [31:0] $end
$var wire 32 I id_rt_data [31:0] $end
$var wire 5 J id_rt [4:0] $end
$var wire 32 K id_rs_data [31:0] $end
$var wire 5 L id_rs [4:0] $end
$var wire 5 M id_rd [4:0] $end
$var wire 6 N id_opcode [5:0] $end
$var wire 26 O id_jaddr [25:0] $end
$var wire 16 P id_imm [15:0] $end
$var wire 6 Q id_funct [5:0] $end
$var wire 1 R exmem_zero $end
$var wire 5 S exmem_write_reg [4:0] $end
$var wire 32 T exmem_rt_data [31:0] $end
$var wire 32 U exmem_branch_target [31:0] $end
$var wire 32 V exmem_alu_result [31:0] $end
$var wire 1 W exmem_RegWrite $end
$var wire 1 X exmem_MemWrite $end
$var wire 1 Y exmem_MemToReg $end
$var wire 1 Z exmem_MemRead $end
$var wire 1 [ exmem_Branch $end
$var wire 32 \ branch_target [31:0] $end
$var wire 32 ] alu_src_b [31:0] $end
$var wire 32 ^ alu_result [31:0] $end
$var wire 4 _ alu_ctrl [3:0] $end
$var wire 1 ` RegWrite $end
$var wire 1 a RegDst $end
$var wire 1 b MemWrite $end
$var wire 1 c MemToReg $end
$var wire 1 d MemRead $end
$var wire 1 e Jump $end
$var wire 1 f Branch $end
$var wire 1 g ALUSrc $end
$var wire 2 h ALUOp [1:0] $end
$scope module u_alu $end
$var wire 1 % zero $end
$var wire 32 i b [31:0] $end
$var wire 4 j alu_control [3:0] $end
$var wire 32 k a [31:0] $end
$var reg 32 l alu_result [31:0] $end
$upscope $end
$scope module u_aluctrl $end
$var wire 6 m opcode [5:0] $end
$var wire 6 n funct [5:0] $end
$var wire 2 o ALUOp [1:0] $end
$var reg 4 p alu_control [3:0] $end
$upscope $end
$scope module u_ctrl $end
$var wire 6 q opcode [5:0] $end
$var reg 2 r ALUOp [1:0] $end
$var reg 1 g ALUSrc $end
$var reg 1 f Branch $end
$var reg 1 e Jump $end
$var reg 1 d MemRead $end
$var reg 1 c MemToReg $end
$var reg 1 b MemWrite $end
$var reg 1 a RegDst $end
$var reg 1 ` RegWrite $end
$upscope $end
$scope module u_dm $end
$var wire 1 ! clk $end
$var wire 32 s write_data [31:0] $end
$var wire 32 t addr [31:0] $end
$var wire 1 X MemWrite $end
$var wire 1 Z MemRead $end
$var parameter 32 u AW $end
$var reg 32 v read_data [31:0] $end
$upscope $end
$scope module u_exmem $end
$var wire 32 w alu_result_in [31:0] $end
$var wire 32 x branch_target_in [31:0] $end
$var wire 1 ! clk $end
$var wire 1 $ reset $end
$var wire 5 y write_reg_in [4:0] $end
$var wire 1 % zero_in $end
$var wire 32 z rt_data_in [31:0] $end
$var wire 1 @ RegWrite_in $end
$var wire 1 B MemWrite_in $end
$var wire 1 C MemToReg_in $end
$var wire 1 D MemRead_in $end
$var wire 1 E Branch_in $end
$var reg 1 [ Branch $end
$var reg 1 Z MemRead $end
$var reg 1 Y MemToReg $end
$var reg 1 X MemWrite $end
$var reg 1 W RegWrite $end
$var reg 32 { alu_result [31:0] $end
$var reg 32 | branch_target [31:0] $end
$var reg 32 } rt_data [31:0] $end
$var reg 5 ~ write_reg [4:0] $end
$var reg 1 R zero $end
$upscope $end
$scope module u_idex $end
$var wire 2 !" ALUOp_in [1:0] $end
$var wire 1 g ALUSrc_in $end
$var wire 1 f Branch_in $end
$var wire 1 d MemRead_in $end
$var wire 1 c MemToReg_in $end
$var wire 1 b MemWrite_in $end
$var wire 1 a RegDst_in $end
$var wire 1 ` RegWrite_in $end
$var wire 1 ! clk $end
$var wire 6 "" funct_in [5:0] $end
$var wire 6 #" opcode_in [5:0] $end
$var wire 5 $" rd_in [4:0] $end
$var wire 1 $ reset $end
$var wire 5 %" rs_in [4:0] $end
$var wire 5 &" rt_in [4:0] $end
$var wire 32 '" sign_ext_in [31:0] $end
$var wire 32 (" rt_data_in [31:0] $end
$var wire 32 )" rs_data_in [31:0] $end
$var wire 32 *" pc_plus4_in [31:0] $end
$var reg 2 +" ALUOp [1:0] $end
$var reg 1 F ALUSrc $end
$var reg 1 E Branch $end
$var reg 1 D MemRead $end
$var reg 1 C MemToReg $end
$var reg 1 B MemWrite $end
$var reg 1 A RegDst $end
$var reg 1 @ RegWrite $end
$var reg 6 ," funct [5:0] $end
$var reg 6 -" opcode [5:0] $end
$var reg 32 ." pc_plus4 [31:0] $end
$var reg 5 /" rd [4:0] $end
$var reg 5 0" rs [4:0] $end
$var reg 32 1" rs_data [31:0] $end
$var reg 5 2" rt [4:0] $end
$var reg 32 3" rt_data [31:0] $end
$var reg 32 4" sign_ext [31:0] $end
$upscope $end
$scope module u_ifid $end
$var wire 1 ! clk $end
$var wire 32 5" pc_plus4_in [31:0] $end
$var wire 1 $ reset $end
$var wire 32 6" instr_in [31:0] $end
$var reg 32 7" instr [31:0] $end
$var reg 32 8" pc_plus4 [31:0] $end
$upscope $end
$scope module u_im $end
$var wire 10 9" addr_word [9:0] $end
$var wire 32 :" instr [31:0] $end
$var parameter 32 ;" AW $end
$var parameter 32 <" DW $end
$upscope $end
$scope module u_memwb $end
$var wire 1 Y MemToReg_in $end
$var wire 1 W RegWrite_in $end
$var wire 32 =" alu_result_in [31:0] $end
$var wire 1 ! clk $end
$var wire 32 >" read_data_in [31:0] $end
$var wire 1 $ reset $end
$var wire 5 ?" write_reg_in [4:0] $end
$var reg 1 1 MemToReg $end
$var reg 1 0 RegWrite $end
$var reg 32 @" alu_result [31:0] $end
$var reg 32 A" read_data [31:0] $end
$var reg 5 B" write_reg [4:0] $end
$upscope $end
$scope module u_mux_alu $end
$var wire 32 C" a [31:0] $end
$var wire 32 D" b [31:0] $end
$var wire 1 F sel $end
$var wire 32 E" y [31:0] $end
$var parameter 32 F" WIDTH $end
$upscope $end
$scope module u_pc $end
$var wire 1 ! clk $end
$var wire 32 G" next_pc [31:0] $end
$var wire 1 $ reset $end
$var reg 32 H" pc_out [31:0] $end
$upscope $end
$scope module u_rf $end
$var wire 1 0 RegWrite $end
$var wire 1 ! clk $end
$var wire 5 I" rd_addr [4:0] $end
$var wire 5 J" rs_addr [4:0] $end
$var wire 32 K" rs_data [31:0] $end
$var wire 5 L" rt_addr [4:0] $end
$var wire 32 M" rt_data [31:0] $end
$var wire 32 N" write_data [31:0] $end
$var integer 32 O" i [31:0] $end
$upscope $end
$scope module u_signext $end
$var wire 16 P" in [15:0] $end
$var wire 32 Q" out [31:0] $end
$upscope $end
$upscope $end
$upscope $end
$enddefinitions $end
$comment Show the parameter values. $end
$dumpall
b100000 F"
b100000 <"
b1010 ;"
b1010 u
$end
#0
$dumpvars
b0 Q"
b0 P"
b100000 O"
b0 N"
b0 M"
b0 L"
b0 K"
b0 J"
b0 I"
b0 H"
b100 G"
b0 E"
b0 D"
b0 C"
b0 B"
b0 A"
b0 @"
b0 ?"
b0 >"
b0 ="
b100000000010000000000000000000 :"
b0 9"
b0 8"
b0 7"
b100000000010000000000000000000 6"
b100 5"
b0 4"
b0 3"
b0 2"
b0 1"
b0 0"
b0 /"
b0 ."
b0 -"
b0 ,"
b0 +"
b0 *"
b0 )"
b0 ("
b0 '"
b0 &"
b0 %"
b0 $"
b0 #"
b0 ""
b10 !"
b0 ~
b0 }
b0 |
b0 {
b0 z
b0 y
b0 x
b0 w
b0 v
b0 t
b0 s
b10 r
b0 q
b10 p
b0 o
b0 n
b0 m
b0 l
b0 k
b10 j
b0 i
b10 h
0g
0f
0e
0d
0c
0b
1a
1`
b10 _
b0 ^
b0 ]
b0 \
0[
0Z
0Y
0X
0W
b0 V
b0 U
b0 T
b0 S
0R
b0 Q
b0 P
b0 O
b0 N
b0 M
b0 L
b0 K
b0 J
b0 I
b0 H
b0 G
0F
0E
0D
0C
0B
0A
0@
b0 ?
b0 >
b0 =
b0 <
b0 ;
b0 :
b0 9
b0 8
b0 7
b0 6
b0 5
b100000000010000000000000000000 4
b0 3
b0 2
01
00
b0 /
b0 .
b0 -
b0 ,
b0 +
b0 *
b100 )
b100 (
b0 '
b0 &
1%
1$
0#
b0 "
0!
$end
#5000
1!
#10000
0!
#15000
1!
#20000
0!
0$
#25000
1g
b0 h
b0 r
b0 !"
1`
0a
b1000 )
b1000 G"
b1000000000000000000000 3
b10000000000000000000 O
b1000 J
b1000 &"
b1000 L"
b1000 N
b1000 q
b1000 #"
b100000000010010000000000000101 4
b100000000010010000000000000101 6"
b100000000010010000000000000101 :"
b1 *
b1 9"
1R
b10 G
b10 o
b10 +"
1@
1A
b100000000010000000000000000000 6
b100000000010000000000000000000 7"
b100 5
b100 *"
b100 8"
b1000 (
b1000 5"
b100 +
b100 H"
1!
#30000
0!
#35000
b1100 )
b1100 G"
b100000000010100000000000001010 4
b100000000010100000000000001010 6"
b100000000010100000000000001010 :"
b10 *
b10 9"
b1001000000000000010100 3
b10010000000000000101 O
b101 H
b101 '"
b101 Q"
b101 P
b101 P"
b101 Q
b101 ""
b1001 J
b1001 &"
b1001 L"
b1000 &
b1000 y
b1100 (
b1100 5"
b1000 +
b1000 H"
b100000000010010000000000000101 6
b100000000010010000000000000101 7"
b1000 5
b1000 *"
b1000 8"
b1000 >
b1000 m
b1000 -"
b1000 9
b1000 2"
b100 \
b100 x
b100 =
b100 ."
b0 G
b0 o
b0 +"
1F
0A
1W
1!
#40000
0!
#45000
0%
b101 ^
b101 l
b101 w
b10000 )
b10000 G"
b1001 &
b1001 y
b101 ]
b101 i
b101 E"
b10100 '
b1010000000000000101000 3
b10100000000000001010 O
b1010 H
b1010 '"
b1010 Q"
b1010 P
b1010 P"
b1010 Q
b1010 ""
b1010 J
b1010 &"
b1010 L"
b10001110000010110000000000000000 4
b10001110000010110000000000000000 6"
b10001110000010110000000000000000 :"
b11 *
b11 9"
10
b1000 S
b1000 ~
b1000 ?"
b100 U
b100 |
b101 ?
b101 n
b101 ,"
b1001 9
b1001 2"
b101 7
b101 4"
b101 D"
b11100 \
b11100 x
b1000 =
b1000 ."
b100000000010100000000000001010 6
b100000000010100000000000001010 7"
b1100 5
b1100 *"
b1100 8"
b10000 (
b10000 5"
b1100 +
b1100 H"
1!
#50000
0!
#55000
b10100 )
b10100 G"
1d
1c
1`
1g
b1010 ^
b1010 l
b1010 w
b10001011010100000000000000101 4
b10001011010100000000000000101 6"
b10001011010100000000000000101 :"
b100 *
b100 9"
b1000001011000000000000000000 3
b10000010110000000000000000 O
b0 H
b0 '"
b0 Q"
b0 P
b0 P"
b0 Q
b0 ""
b1011 J
b1011 &"
b1011 L"
b10000 L
b10000 %"
b10000 J"
b100011 N
b100011 q
b100011 #"
b1010 &
b1010 y
b1010 ]
b1010 i
b1010 E"
b101000 '
b10100 (
b10100 5"
b10000 +
b10000 H"
b10001110000010110000000000000000 6
b10001110000010110000000000000000 7"
b10000 5
b10000 *"
b10000 8"
b1010 ?
b1010 n
b1010 ,"
b1010 9
b1010 2"
b1010 7
b1010 4"
b1010 D"
b110100 \
b110100 x
b1100 =
b1100 ."
b1001 S
b1001 ~
b1001 ?"
b101 V
b101 t
b101 {
b101 ="
0R
b11100 U
b11100 |
b1000 "
b1000 I"
b1000 ,
b1000 B"
1!
#60000
0!
#65000
1%
b0 ^
b0 l
b0 w
b1 h
b1 r
b1 !"
1f
0d
0`
0c
0g
b11000 )
b11000 G"
b101 -
b101 N"
b1011 &
b1011 y
b0 ]
b0 i
b0 E"
b0 '
b101101010000000000000010100 3
b1011010100000000000000101 O
b101 H
b101 '"
b101 Q"
b101 P
b101 P"
b101 Q
b101 ""
b1010 J
b1010 &"
b1010 L"
b1011 L
b1011 %"
b1011 J"
b100 N
b100 q
b100 #"
b100010000100000000000000000100 4
b100010000100000000000000000100 6"
b100010000100000000000000000100 :"
b101 *
b101 9"
b1001 "
b1001 I"
b1001 ,
b1001 B"
b101 /
b101 @"
b1010 S
b1010 ~
b1010 ?"
b1010 V
b1010 t
b1010 {
b1010 ="
b110100 U
b110100 |
b100011 >
b100011 m
b100011 -"
b0 ?
b0 n
b0 ,"
b1011 9
b1011 2"
b10000 ;
b10000 0"
b0 7
b0 4"
b0 D"
b10000 \
b10000 x
b10000 =
b10000 ."
1D
1C
b10001011010100000000000000101 6
b10001011010100000000000000101 7"
b10100 5
b10100 *"
b10100 8"
b11000 (
b11000 5"
b10100 +
b10100 H"
1!
#70000
0!
#75000
b11100 )
b11100 G"
1`
1g
b0 h
b0 r
b0 !"
0f
b100001000010000000000000000001 4
b100001000010000000000000000001 6"
b100001000010000000000000000001 :"
b110 *
b110 9"
b1000010000000000000000010000 3
b10000100000000000000000100 O
b100 H
b100 '"
b100 Q"
b100 P
b100 P"
b100 Q
b100 ""
b10000 J
b10000 &"
b10000 L"
b10000 L
b10000 %"
b10000 J"
b1000 N
b1000 q
b1000 #"
b1010 &
b1010 y
b10100 '
b110 _
b110 j
b110 p
b1010 -
b1010 N"
b11100 (
b11100 5"
b11000 +
b11000 H"
b100010000100000000000000000100 6
b100010000100000000000000000100 7"
b11000 5
b11000 *"
b11000 8"
b100 >
b100 m
b100 -"
b101 ?
b101 n
b101 ,"
b1010 9
b1010 2"
b1011 ;
b1011 0"
b101 7
b101 4"
b101 D"
b101000 \
b101000 x
b10100 =
b10100 ."
b1 G
b1 o
b1 +"
1E
0D
0@
0C
0F
b1011 S
b1011 ~
b1011 ?"
b0 V
b0 t
b0 {
b0 ="
1R
b10000 U
b10000 |
1Z
1Y
b1010 "
b1010 I"
b1010 ,
b1010 B"
b1010 /
b1010 @"
1!
#80000
0!
#85000
0%
b100 ^
b100 l
b100 w
b101000 )
b101000 G"
b0 -
b0 N"
1#
b10000 &
b10000 y
b10000 '
b10 _
b10 j
b10 p
b100 ]
b100 i
b100 E"
b100001000000000000000000100 3
b1000010000000000000000001 O
b1 H
b1 '"
b1 Q"
b1 P
b1 P"
b1 Q
b1 ""
b1000 J
b1000 &"
b1000 L"
b1000 L
b1000 %"
b1000 J"
b1000010010110000000101010 4
b1000010010110000000101010 6"
b1000010010110000000101010 :"
b111 *
b111 9"
b1011 "
b1011 I"
b1011 ,
b1011 B"
b0 /
b0 @"
11
b1010 S
b1010 ~
b1010 ?"
b101000 U
b101000 |
1[
0Z
0W
0Y
b1000 >
b1000 m
b1000 -"
b100 ?
b100 n
b100 ,"
b10000 9
b10000 2"
b10000 ;
b10000 0"
b100 7
b100 4"
b100 D"
b101000 \
b101000 x
b11000 =
b11000 ."
b0 G
b0 o
b0 +"
0E
1@
1F
b100001000010000000000000000001 6
b100001000010000000000000000001 7"
b11100 5
b11100 *"
b11100 8"
b100000 (
b100000 5"
b11100 +
b11100 H"
1!
#90000
0!
#95000
b101100 )
b101100 G"
b10 h
b10 r
b10 !"
1a
1`
0g
b1 ^
b1 l
b1 w
b100000000011010000000000000001 4
b100000000011010000000000000001 6"
b100000000011010000000000000001 :"
b1010 *
b1010 9"
b100001001011000000010101000 3
b1000010010110000000101010 O
b110000000101010 H
b110000000101010 '"
b110000000101010 Q"
b110000000101010 P
b110000000101010 P"
b101010 Q
b101010 ""
b1100 M
b1100 $"
b101 I
b101 ("
b101 M"
b1001 J
b1001 &"
b1001 L"
b0 N
b0 q
b0 #"
b1000 &
b1000 y
b1 ]
b1 i
b1 E"
b100 '
0#
b101100 (
b101100 5"
b101000 +
b101000 H"
b1000010010110000000101010 6
b1000010010110000000101010 7"
b100000 5
b100000 *"
b100000 8"
b1 ?
b1 n
b1 ,"
b1000 9
b1000 2"
b1000 ;
b1000 0"
b1 7
b1 4"
b1 D"
b100000 \
b100000 x
b11100 =
b11100 ."
b10000 S
b10000 ~
b10000 ?"
b100 V
b100 t
b100 {
b100 ="
0R
0[
1W
b1010 "
b1010 I"
b1010 ,
b1010 B"
00
01
1!
#100000
0!
#105000
1g
b0 h
b0 r
b0 !"
1`
0a
b110000 )
b110000 G"
b100 -
b100 N"
b11000000010101000 '
b111 _
b111 j
b111 p
b101 ]
b101 i
b101 E"
b1100 &
b1100 y
b1101000000000000000100 3
b11010000000000000001 O
b1 H
b1 '"
b1 Q"
b1 P
b1 P"
b1 Q
b1 ""
b0 M
b0 $"
b0 I
b0 ("
b0 M"
b1101 J
b1101 &"
b1101 L"
b0 L
b0 %"
b0 J"
b1000 N
b1000 q
b1000 #"
b1000000000000000000000000111 4
b1000000000000000000000000111 6"
b1000000000000000000000000111 :"
b1011 *
b1011 9"
b10000 "
b10000 I"
b10000 ,
b10000 B"
b100 /
b100 @"
10
b1000 S
b1000 ~
b1000 ?"
b1 V
b1 t
b1 {
b1 ="
b100000 U
b100000 |
b0 >
b0 m
b0 -"
b101010 ?
b101010 n
b101010 ,"
b1100 <
b1100 /"
b1001 9
b1001 2"
b110000000101010 7
b110000000101010 4"
b110000000101010 D"
b101 8
b101 z
b101 3"
b101 C"
b11000000011001000 \
b11000000011001000 x
b100000 =
b100000 ."
b10 G
b10 o
b10 +"
0F
1A
b100000000011010000000000000001 6
b100000000011010000000000000001 7"
b101100 5
b101100 *"
b101100 8"
b110000 (
b110000 5"
b101100 +
b101100 H"
1!
#110000
0!
#115000
b11100 )
b11100 G"
1e
0`
0g
b100000000011010000000000000000 4
b100000000011010000000000000000 6"
b100000000011010000000000000000 :"
b1100 *
b1100 9"
b11100 3
b111 O
b111 H
b111 '"
b111 Q"
b111 P
b111 P"
b111 Q
b111 ""
b0 J
b0 &"
b0 L"
b10 N
b10 q
b10 #"
b100 '
b10 _
b10 j
b10 p
b1 ]
b1 i
b1 E"
b1101 &
b1101 y
b1 -
b1 N"
b110100 (
b110100 5"
b110000 +
b110000 H"
b1000000000000000000000000111 6
b1000000000000000000000000111 7"
b110000 5
b110000 *"
b110000 8"
b1000 >
b1000 m
b1000 -"
b1 ?
b1 n
b1 ,"
b0 <
b0 /"
b1101 9
b1101 2"
b0 ;
b0 0"
b1 7
b1 4"
b1 D"
b0 8
b0 z
b0 3"
b0 C"
b110000 \
b110000 x
b101100 =
b101100 ."
b0 G
b0 o
b0 +"
1F
0A
b1100 S
b1100 ~
b1100 ?"
b101 T
b101 s
b101 }
b11000000011001000 U
b11000000011001000 |
b1000 "
b1000 I"
b1000 ,
b1000 B"
b1 /
b1 @"
1!
#120000
0!
#125000
1%
b0 ^
b0 l
b0 w
b100000 )
b100000 G"
1`
1g
0e
b0 &
b0 y
b11100 '
b0 ]
b0 i
b0 E"
b1101000000000000000000 3
b11010000000000000000 O
b0 H
b0 '"
b0 Q"
b0 P
b0 P"
b0 Q
b0 ""
b1101 J
b1101 &"
b1101 L"
b1000 N
b1000 q
b1000 #"
b1000010010110000000101010 4
b1000010010110000000101010 6"
b1000010010110000000101010 :"
b111 *
b111 9"
b1100 "
b1100 I"
b1100 ,
b1100 B"
b1101 S
b1101 ~
b1101 ?"
b0 T
b0 s
b0 }
b110000 U
b110000 |
b10 >
b10 m
b10 -"
b111 ?
b111 n
b111 ,"
b0 9
b0 2"
b111 7
b111 4"
b111 D"
b1001100 \
b1001100 x
b110000 =
b110000 ."
0@
0F
b100000000011010000000000000000 6
b100000000011010000000000000000 7"
b110100 5
b110100 *"
b110100 8"
b100000 (
b100000 5"
b11100 +
b11100 H"
1!
#130000
0!
#135000
b100100 )
b100100 G"
b10 h
b10 r
b10 !"
1a
1`
0g
b10001100000000000000000000110 4
b10001100000000000000000000110 6"
b10001100000000000000000000110 :"
b1000 *
b1000 9"
b100001001011000000010101000 3
b1000010010110000000101010 O
b110000000101010 H
b110000000101010 '"
b110000000101010 Q"
b110000000101010 P
b110000000101010 P"
b101010 Q
b101010 ""
b1100 M
b1100 $"
b101 I
b101 ("
b101 M"
b1001 J
b1001 &"
b1001 L"
b1 K
b1 )"
b1 K"
b1000 L
b1000 %"
b1000 J"
b0 N
b0 q
b0 #"
b1101 &
b1101 y
b0 '
b100100 (
b100100 5"
b100000 +
b100000 H"
b1000010010110000000101010 6
b1000010010110000000101010 7"
b100000 5
b100000 *"
b100000 8"
b1000 >
b1000 m
b1000 -"
b0 ?
b0 n
b0 ,"
b1101 9
b1101 2"
b0 7
b0 4"
b0 D"
b110100 \
b110100 x
b110100 =
b110100 ."
1@
1F
b0 S
b0 ~
b0 ?"
b0 V
b0 t
b0 {
b0 ="
1R
b1001100 U
b1001100 |
0W
b1101 "
b1101 I"
b1101 ,
b1101 B"
1!
#140000
0!
#145000
1f
b1 h
b1 r
b1 !"
0`
0a
b101000 )
b101000 G"
b0 -
b0 N"
b11000000010101000 '
0%
b1 ^
b1 l
b1 w
b111 _
b111 j
b111 p
b101 ]
b101 i
b101 E"
b1100 &
b1100 y
b110000000000000000000011000 3
b1100000000000000000000110 O
b110 H
b110 '"
b110 Q"
b110 P
b110 P"
b110 Q
b110 ""
b0 M
b0 $"
b0 I
b0 ("
b0 M"
b0 J
b0 &"
b0 L"
b1100 L
b1100 %"
b1100 J"
b100 N
b100 q
b100 #"
b1000000000000000000000000011 4
b1000000000000000000000000011 6"
b1000000000000000000000000011 :"
b1001 *
b1001 9"
b0 "
b0 I"
b0 ,
b0 B"
b0 /
b0 @"
00
b1101 S
b1101 ~
b1101 ?"
b110100 U
b110100 |
1W
b0 >
b0 m
b0 -"
b101010 ?
b101010 n
b101010 ,"
b1100 <
b1100 /"
b1001 9
b1001 2"
b1000 ;
b1000 0"
b110000000101010 7
b110000000101010 4"
b110000000101010 D"
b101 8
b101 z
b101 3"
b101 C"
b1 :
b1 k
b1 1"
b11000000011001000 \
b11000000011001000 x
b100000 =
b100000 ."
b10 G
b10 o
b10 +"
0F
1A
b10001100000000000000000000110 6
b10001100000000000000000000110 7"
b100100 5
b100100 *"
b100100 8"
b101000 (
b101000 5"
b100100 +
b100100 H"
1!
#150000
0!
#155000
b1100 )
b1100 G"
1e
b0 h
b0 r
b0 !"
0f
b100000000011010000000000000001 4
b100000000011010000000000000001 6"
b100000000011010000000000000001 :"
b1010 *
b1010 9"
b1100 3
b11 O
b11 H
b11 '"
b11 Q"
b11 P
b11 P"
b11 Q
b11 ""
b0 K
b0 )"
b0 K"
b0 L
b0 %"
b0 J"
b10 N
b10 q
b10 #"
b11000 '
b0 ]
b0 i
b0 E"
b110 _
b110 j
b110 p
b0 &
b0 y
b101100 (
b101100 5"
b101000 +
b101000 H"
b1000000000000000000000000011 6
b1000000000000000000000000011 7"
b101000 5
b101000 *"
b101000 8"
b100 >
b100 m
b100 -"
b110 ?
b110 n
b110 ,"
b0 <
b0 /"
b0 9
b0 2"
b1100 ;
b1100 0"
b110 7
b110 4"
b110 D"
b0 8
b0 z
b0 3"
b0 C"
b111100 \
b111100 x
b100100 =
b100100 ."
b1 G
b1 o
b1 +"
1E
0@
0A
b1100 S
b1100 ~
b1100 ?"
b101 T
b101 s
b101 }
b1 V
b1 t
b1 {
b1 ="
0R
b11000000011001000 U
b11000000011001000 |
b1101 "
b1101 I"
b1101 ,
b1101 B"
10
1!
#160000
0!
#165000
b10000 )
b10000 G"
1`
1g
0e
b1 -
b1 N"
b1100 '
1%
b0 ^
b0 l
b0 w
b10 _
b10 j
b10 p
b1101000000000000000100 3
b11010000000000000001 O
b1 H
b1 '"
b1 Q"
b1 P
b1 P"
b1 Q
b1 ""
b1101 J
b1101 &"
b1101 L"
b1000 N
b1000 q
b1000 #"
b10001110000010110000000000000000 4
b10001110000010110000000000000000 6"
b10001110000010110000000000000000 :"
b11 *
b11 9"
b1100 "
b1100 I"
b1100 ,
b1100 B"
b1 /
b1 @"
b0 S
b0 ~
b0 ?"
b0 T
b0 s
b0 }
b111100 U
b111100 |
1[
0W
b10 >
b10 m
b10 -"
b11 ?
b11 n
b11 ,"
b0 ;
b0 0"
b11 7
b11 4"
b11 D"
b0 :
b0 k
b0 1"
b110100 \
b110100 x
b101000 =
b101000 ."
b0 G
b0 o
b0 +"
0E
b100000000011010000000000000001 6
b100000000011010000000000000001 7"
b101100 5
b101100 *"
b101100 8"
b10000 (
b10000 5"
b1100 +
b1100 H"
1!
#170000
0!
#175000
b10100 )
b10100 G"
1d
1c
1`
1g
0%
b1 ^
b1 l
b1 w
b10001011010100000000000000101 4
b10001011010100000000000000101 6"
b10001011010100000000000000101 :"
b100 *
b100 9"
b1000001011000000000000000000 3
b10000010110000000000000000 O
b0 H
b0 '"
b0 Q"
b0 P
b0 P"
b0 Q
b0 ""
b1011 J
b1011 &"
b1011 L"
b100 K
b100 )"
b100 K"
b10000 L
b10000 %"
b10000 J"
b100011 N
b100011 q
b100011 #"
b1101 &
b1101 y
b100 '
b1 ]
b1 i
b1 E"
b10100 (
b10100 5"
b10000 +
b10000 H"
b10001110000010110000000000000000 6
b10001110000010110000000000000000 7"
b10000 5
b10000 *"
b10000 8"
b1000 >
b1000 m
b1000 -"
b1 ?
b1 n
b1 ,"
b1101 9
b1101 2"
b1 7
b1 4"
b1 D"
b110000 \
b110000 x
b101100 =
b101100 ."
1@
1F
b0 V
b0 t
b0 {
b0 ="
1R
b110100 U
b110100 |
0[
b0 "
b0 I"
b0 ,
b0 B"
00
1!
#180000
0!
#185000
b1 h
b1 r
b1 !"
1f
0d
0`
0c
0g
b11000 )
b11000 G"
b0 -
b0 N"
b1011 &
b1011 y
b0 ]
b0 i
b0 E"
b0 '
b100 ^
b100 l
b100 w
b101101010000000000000010100 3
b1011010100000000000000101 O
b101 H
b101 '"
b101 Q"
b101 P
b101 P"
b101 Q
b101 ""
b1010 I
b1010 ("
b1010 M"
b1010 J
b1010 &"
b1010 L"
b0 K
b0 )"
b0 K"
b1011 L
b1011 %"
b1011 J"
b100 N
b100 q
b100 #"
b100010000100000000000000000100 4
b100010000100000000000000000100 6"
b100010000100000000000000000100 :"
b101 *
b101 9"
b0 /
b0 @"
b1101 S
b1101 ~
b1101 ?"
b1 V
b1 t
b1 {
b1 ="
0R
b110000 U
b110000 |
1W
b100011 >
b100011 m
b100011 -"
b0 ?
b0 n
b0 ,"
b1011 9
b1011 2"
b10000 ;
b10000 0"
b0 7
b0 4"
b0 D"
b100 :
b100 k
b100 1"
b10000 \
b10000 x
b10000 =
b10000 ."
1D
1C
b10001011010100000000000000101 6
b10001011010100000000000000101 7"
b10100 5
b10100 *"
b10100 8"
b11000 (
b11000 5"
b10100 +
b10100 H"
1!
#190000
0!
#195000
b11100 )
b11100 G"
1`
1g
b0 h
b0 r
b0 !"
0f
b100001000010000000000000000001 4
b100001000010000000000000000001 6"
b100001000010000000000000000001 :"
b110 *
b110 9"
b1000010000000000000000010000 3
b10000100000000000000000100 O
b100 H
b100 '"
b100 Q"
b100 P
b100 P"
b100 Q
b100 ""
b100 I
b100 ("
b100 M"
b10000 J
b10000 &"
b10000 L"
b100 K
b100 )"
b100 K"
b10000 L
b10000 %"
b10000 J"
b1000 N
b1000 q
b1000 #"
b1010 &
b1010 y
b10100 '
b11111111111111111111111111110110 ^
b11111111111111111111111111110110 l
b11111111111111111111111111110110 w
b110 _
b110 j
b110 p
b1010 ]
b1010 i
b1010 E"
b1 2
b1 v
b1 >"
b1 -
b1 N"
b11100 (
b11100 5"
b11000 +
b11000 H"
b100010000100000000000000000100 6
b100010000100000000000000000100 7"
b11000 5
b11000 *"
b11000 8"
b100 >
b100 m
b100 -"
b101 ?
b101 n
b101 ,"
b1010 9
b1010 2"
b1011 ;
b1011 0"
b101 7
b101 4"
b101 D"
b1010 8
b1010 z
b1010 3"
b1010 C"
b0 :
b0 k
b0 1"
b101000 \
b101000 x
b10100 =
b10100 ."
b1 G
b1 o
b1 +"
1E
0D
0@
0C
0F
b1011 S
b1011 ~
b1011 ?"
b100 V
b100 t
b100 {
b100 ="
b10000 U
b10000 |
1Z
1Y
b1101 "
b1101 I"
b1101 ,
b1101 B"
b1 /
b1 @"
10
1!
#200000
0!
